simulation/qsim/Alu.msim.vcd
$comment
	File created using the following command:
		vcd file Alu.msim.vcd -direction
$end
$date
	Thu Jun 17 00:17:45 2021
$end
$version
	ModelSim Version 10.1d
$end
$timescale
	1ps
$end
$scope module Alu_vlg_vec_tst $end
$var reg 4 ! A [3:0] $end
$var reg 4 " B [3:0] $end
$var reg 5 # control [4:0] $end
$var wire 1 $ leds [7] $end
$var wire 1 % leds [6] $end
$var wire 1 & leds [5] $end
$var wire 1 ' leds [4] $end
$var wire 1 ( leds [3] $end
$var wire 1 ) leds [2] $end
$var wire 1 * leds [1] $end
$var wire 1 + leds [0] $end
$var wire 1 , salida [6] $end
$var wire 1 - salida [5] $end
$var wire 1 . salida [4] $end
$var wire 1 / salida [3] $end
$var wire 1 0 salida [2] $end
$var wire 1 1 salida [1] $end
$var wire 1 2 salida [0] $end
$var wire 1 3 salida2 [6] $end
$var wire 1 4 salida2 [5] $end
$var wire 1 5 salida2 [4] $end
$var wire 1 6 salida2 [3] $end
$var wire 1 7 salida2 [2] $end
$var wire 1 8 salida2 [1] $end
$var wire 1 9 salida2 [0] $end
$var wire 1 : sampler $end
$scope module i1 $end
$var wire 1 ; gnd $end
$var wire 1 < vcc $end
$var wire 1 = unknown $end
$var tri1 1 > devclrn $end
$var tri1 1 ? devpor $end
$var tri1 1 @ devoe $end
$var wire 1 A Add2~0_combout $end
$var wire 1 B Div0|auto_generated|divider|divider|add_sub_2_result_int[0]~0_combout $end
$var wire 1 C Div0|auto_generated|divider|divider|add_sub_2_result_int[1]~2_combout $end
$var wire 1 D Div0|auto_generated|divider|divider|add_sub_2_result_int[2]~4_combout $end
$var wire 1 E Div0|auto_generated|divider|divider|add_sub_3_result_int[0]~1_cout $end
$var wire 1 F Div0|auto_generated|divider|divider|add_sub_3_result_int[1]~3_cout $end
$var wire 1 G Div0|auto_generated|divider|divider|add_sub_3_result_int[2]~5_cout $end
$var wire 1 H Div0|auto_generated|divider|divider|add_sub_3_result_int[3]~7_cout $end
$var wire 1 I Div0|auto_generated|divider|divider|add_sub_3_result_int[4]~8_combout $end
$var wire 1 J Add0~2_combout $end
$var wire 1 K Add1~3 $end
$var wire 1 L Add1~4_combout $end
$var wire 1 M Add1~5 $end
$var wire 1 N Add2~4_combout $end
$var wire 1 O Add0~7 $end
$var wire 1 P Add1~6_combout $end
$var wire 1 Q Add1~7 $end
$var wire 1 R Add2~7 $end
$var wire 1 S Mult0|auto_generated|op_3~0_combout $end
$var wire 1 T Mult0|auto_generated|op_3~2_combout $end
$var wire 1 U Mult0|auto_generated|op_1~0_combout $end
$var wire 1 V Mult0|auto_generated|op_3~4_combout $end
$var wire 1 W Mult0|auto_generated|op_3~6_combout $end
$var wire 1 X Mult0|auto_generated|op_1~5 $end
$var wire 1 Y Mult0|auto_generated|op_3~8_combout $end
$var wire 1 Z Add1~8_combout $end
$var wire 1 [ Add2~8_combout $end
$var wire 1 \ Add0~8_combout $end
$var wire 1 ] Mult0|auto_generated|op_1~6_combout $end
$var wire 1 ^ Mult0|auto_generated|op_1~7 $end
$var wire 1 _ Mult0|auto_generated|op_3~10_combout $end
$var wire 1 ` Mult0|auto_generated|op_1~8_combout $end
$var wire 1 a Mult0|auto_generated|op_1~9 $end
$var wire 1 b Mult0|auto_generated|op_3~12_combout $end
$var wire 1 c Mult0|auto_generated|op_1~10_combout $end
$var wire 1 d Mux8~2_combout $end
$var wire 1 e Div0|auto_generated|divider|divider|StageOut[5]~0_combout $end
$var wire 1 f Div0|auto_generated|divider|divider|StageOut[5]~1_combout $end
$var wire 1 g Div0|auto_generated|divider|divider|StageOut[10]~3_combout $end
$var wire 1 h Div0|auto_generated|divider|divider|StageOut[9]~4_combout $end
$var wire 1 i Div0|auto_generated|divider|divider|StageOut[8]~5_combout $end
$var wire 1 j Mux8~4_combout $end
$var wire 1 k Mux8~5_combout $end
$var wire 1 l Mux7~4_combout $end
$var wire 1 m Mux6~0_combout $end
$var wire 1 n Mux6~2_combout $end
$var wire 1 o Equal0~1_combout $end
$var wire 1 p Mux27~2_combout $end
$var wire 1 q Mux27~5_combout $end
$var wire 1 r Mux8~8_combout $end
$var wire 1 s Mux8~9_combout $end
$var wire 1 t Mux29~1_combout $end
$var wire 1 u Mux30~3_combout $end
$var wire 1 v Mux30~4_combout $end
$var wire 1 w Mux8~11_combout $end
$var wire 1 x Mux36~1_combout $end
$var wire 1 y Mux37~0_combout $end
$var wire 1 z Mux38~0_combout $end
$var wire 1 { Mult0|auto_generated|cs2a[1]~0_combout $end
$var wire 1 | Mux40~0_combout $end
$var wire 1 } Mux40~1_combout $end
$var wire 1 ~ Mux29~3_combout $end
$var wire 1 !! Mux27~0_combout $end
$var wire 1 "! Mux27~1_combout $end
$var wire 1 #! Mux27~3_combout $end
$var wire 1 $! Add0~0_combout $end
$var wire 1 %! Mux27~4_combout $end
$var wire 1 &! Mux27~6_combout $end
$var wire 1 '! Mux27~7_combout $end
$var wire 1 (! Mux1~0_combout $end
$var wire 1 )! Mux41~0_combout $end
$var wire 1 *! Add1~0_combout $end
$var wire 1 +! LessThan0~2_combout $end
$var wire 1 ,! LessThan0~6_combout $end
$var wire 1 -! LessThan0~4_combout $end
$var wire 1 .! Mux8~0_combout $end
$var wire 1 /! Mux8~1_combout $end
$var wire 1 0! Mux8~3_combout $end
$var wire 1 1! Mux8~6_combout $end
$var wire 1 2! Mux27~8_combout $end
$var wire 1 3! LessThan1~0_combout $end
$var wire 1 4! Mux8~7_combout $end
$var wire 1 5! Mux27~9_combout $end
$var wire 1 6! Mux27~10_combout $end
$var wire 1 7! Mux35~0_combout $end
$var wire 1 8! Mux35~1_combout $end
$var wire 1 9! Mux35~1clkctrl_outclk $end
$var wire 1 :! leds[0]$latch~combout $end
$var wire 1 ;! Mux28~8_combout $end
$var wire 1 <! Mux28~9_combout $end
$var wire 1 =! Mux28~5_combout $end
$var wire 1 >! Mux28~6_combout $end
$var wire 1 ?! Mux28~11_combout $end
$var wire 1 @! Mux28~0_combout $end
$var wire 1 A! Equal0~0_combout $end
$var wire 1 B! Mux28~1_combout $end
$var wire 1 C! Mux28~2_combout $end
$var wire 1 D! Mux28~4_combout $end
$var wire 1 E! Mux28~3_combout $end
$var wire 1 F! Mux28~13_combout $end
$var wire 1 G! Mux5~4_combout $end
$var wire 1 H! Add4~0_combout $end
$var wire 1 I! Div0|auto_generated|divider|divider|selnose[5]~0_combout $end
$var wire 1 J! Div0|auto_generated|divider|divider|StageOut[4]~2_combout $end
$var wire 1 K! Div0|auto_generated|divider|divider|add_sub_2_result_int[0]~1 $end
$var wire 1 L! Div0|auto_generated|divider|divider|add_sub_2_result_int[1]~3 $end
$var wire 1 M! Div0|auto_generated|divider|divider|add_sub_2_result_int[2]~5 $end
$var wire 1 N! Div0|auto_generated|divider|divider|add_sub_2_result_int[3]~6_combout $end
$var wire 1 O! Mux5~3_combout $end
$var wire 1 P! Mux5~0_combout $end
$var wire 1 Q! Add1~1 $end
$var wire 1 R! Add1~2_combout $end
$var wire 1 S! Add2~1 $end
$var wire 1 T! Add2~2_combout $end
$var wire 1 U! Mux7~0_combout $end
$var wire 1 V! Mux1~1_combout $end
$var wire 1 W! Mux1~1clkctrl_outclk $end
$var wire 1 X! Mux7~1_combout $end
$var wire 1 Y! Mux7~2_combout $end
$var wire 1 Z! Mux7~3_combout $end
$var wire 1 [! Mux7~5_combout $end
$var wire 1 \! Mux28~14_combout $end
$var wire 1 ]! LessThan0~5_combout $end
$var wire 1 ^! Mux28~12_combout $end
$var wire 1 _! leds[1]$latch~combout $end
$var wire 1 `! Mux28~7_combout $end
$var wire 1 a! Mux28~10_combout $end
$var wire 1 b! Mux29~0_combout $end
$var wire 1 c! Mux5~2_combout $end
$var wire 1 d! Add0~1 $end
$var wire 1 e! Add0~3 $end
$var wire 1 f! Add0~4_combout $end
$var wire 1 g! Mux6~1_combout $end
$var wire 1 h! Mux6~3_combout $end
$var wire 1 i! Mux6~4_combout $end
$var wire 1 j! Mux6~5_combout $end
$var wire 1 k! Mux6~6_combout $end
$var wire 1 l! Mux29~4_combout $end
$var wire 1 m! LessThan0~3_combout $end
$var wire 1 n! Mux29~2_combout $end
$var wire 1 o! leds[2]$latch~combout $end
$var wire 1 p! Mux30~0_combout $end
$var wire 1 q! Mux30~1_combout $end
$var wire 1 r! Mux30~2_combout $end
$var wire 1 s! Mux30~5_combout $end
$var wire 1 t! Mux30~6_combout $end
$var wire 1 u! Mux30~7_combout $end
$var wire 1 v! Add0~5 $end
$var wire 1 w! Add0~6_combout $end
$var wire 1 x! Add2~3 $end
$var wire 1 y! Add2~5 $end
$var wire 1 z! Add2~6_combout $end
$var wire 1 {! Mux5~1_combout $end
$var wire 1 |! Mux5~5_combout $end
$var wire 1 }! Mux5~6_combout $end
$var wire 1 ~! Mux5~7_combout $end
$var wire 1 !" Mux5~8_combout $end
$var wire 1 "" Mux5~9_combout $end
$var wire 1 #" Mux8~10_combout $end
$var wire 1 $" Mux5~10_combout $end
$var wire 1 %" Mux30~8_combout $end
$var wire 1 &" Mux30~9_combout $end
$var wire 1 '" Mux30~10_combout $end
$var wire 1 (" leds[3]$latch~combout $end
$var wire 1 )" Mux36~2_combout $end
$var wire 1 *" Mux41~1_combout $end
$var wire 1 +" Mux36~0_combout $end
$var wire 1 ," Mux36~3_combout $end
$var wire 1 -" Mux31~3_combout $end
$var wire 1 ." leds[4]$latch~combout $end
$var wire 1 /" Mux31~2_combout $end
$var wire 1 0" Mux32~2_combout $end
$var wire 1 1" leds[5]$latch~combout $end
$var wire 1 2" Mux33~2_combout $end
$var wire 1 3" leds[6]$latch~combout $end
$var wire 1 4" Mult0|auto_generated|op_1~1 $end
$var wire 1 5" Mult0|auto_generated|op_1~3 $end
$var wire 1 6" Mult0|auto_generated|op_1~4_combout $end
$var wire 1 7" Mult0|auto_generated|op_1~2_combout $end
$var wire 1 8" Mult0|auto_generated|op_3~1 $end
$var wire 1 9" Mult0|auto_generated|op_3~3 $end
$var wire 1 :" Mult0|auto_generated|op_3~5 $end
$var wire 1 ;" Mult0|auto_generated|op_3~7 $end
$var wire 1 <" Mult0|auto_generated|op_3~9 $end
$var wire 1 =" Mult0|auto_generated|op_3~11 $end
$var wire 1 >" Mult0|auto_generated|op_3~13 $end
$var wire 1 ?" Mult0|auto_generated|op_3~14_combout $end
$var wire 1 @" Mux39~0_combout $end
$var wire 1 A" Mux34~2_combout $end
$var wire 1 B" leds[7]$latch~combout $end
$var wire 1 C" Mux16~0_combout $end
$var wire 1 D" Mux15~0_combout $end
$var wire 1 E" Mux14~0_combout $end
$var wire 1 F" Mux13~0_combout $end
$var wire 1 G" Mux12~0_combout $end
$var wire 1 H" Mux11~0_combout $end
$var wire 1 I" Mux10~0_combout $end
$var wire 1 J" Mux23~0_combout $end
$var wire 1 K" Mux22~0_combout $end
$var wire 1 L" Mux21~0_combout $end
$var wire 1 M" Mux20~0_combout $end
$var wire 1 N" Mux19~0_combout $end
$var wire 1 O" Mux18~0_combout $end
$var wire 1 P" Mux17~0_combout $end
$var wire 1 Q" cout [4] $end
$var wire 1 R" cout [3] $end
$var wire 1 S" cout [2] $end
$var wire 1 T" cout [1] $end
$var wire 1 U" cout [0] $end
$var wire 1 V" Mult0|auto_generated|le3a [5] $end
$var wire 1 W" Mult0|auto_generated|le3a [4] $end
$var wire 1 X" Mult0|auto_generated|le3a [3] $end
$var wire 1 Y" Mult0|auto_generated|le3a [2] $end
$var wire 1 Z" Mult0|auto_generated|le3a [1] $end
$var wire 1 [" Mult0|auto_generated|le3a [0] $end
$var wire 1 \" Mult0|auto_generated|le4a [5] $end
$var wire 1 ]" Mult0|auto_generated|le4a [4] $end
$var wire 1 ^" Mult0|auto_generated|le4a [3] $end
$var wire 1 _" Mult0|auto_generated|le4a [2] $end
$var wire 1 `" Mult0|auto_generated|le4a [1] $end
$var wire 1 a" Mult0|auto_generated|le4a [0] $end
$var wire 1 b" control~combout [4] $end
$var wire 1 c" control~combout [3] $end
$var wire 1 d" control~combout [2] $end
$var wire 1 e" control~combout [1] $end
$var wire 1 f" control~combout [0] $end
$var wire 1 g" B~combout [3] $end
$var wire 1 h" B~combout [2] $end
$var wire 1 i" B~combout [1] $end
$var wire 1 j" B~combout [0] $end
$var wire 1 k" multi [7] $end
$var wire 1 l" multi [6] $end
$var wire 1 m" multi [5] $end
$var wire 1 n" multi [4] $end
$var wire 1 o" multi [3] $end
$var wire 1 p" multi [2] $end
$var wire 1 q" multi [1] $end
$var wire 1 r" multi [0] $end
$var wire 1 s" valor1 [3] $end
$var wire 1 t" valor1 [2] $end
$var wire 1 u" valor1 [1] $end
$var wire 1 v" valor1 [0] $end
$var wire 1 w" Div0|auto_generated|divider|divider|selnose [19] $end
$var wire 1 x" Div0|auto_generated|divider|divider|selnose [18] $end
$var wire 1 y" Div0|auto_generated|divider|divider|selnose [17] $end
$var wire 1 z" Div0|auto_generated|divider|divider|selnose [16] $end
$var wire 1 {" Div0|auto_generated|divider|divider|selnose [15] $end
$var wire 1 |" Div0|auto_generated|divider|divider|selnose [14] $end
$var wire 1 }" Div0|auto_generated|divider|divider|selnose [13] $end
$var wire 1 ~" Div0|auto_generated|divider|divider|selnose [12] $end
$var wire 1 !# Div0|auto_generated|divider|divider|selnose [11] $end
$var wire 1 "# Div0|auto_generated|divider|divider|selnose [10] $end
$var wire 1 ## Div0|auto_generated|divider|divider|selnose [9] $end
$var wire 1 $# Div0|auto_generated|divider|divider|selnose [8] $end
$var wire 1 %# Div0|auto_generated|divider|divider|selnose [7] $end
$var wire 1 &# Div0|auto_generated|divider|divider|selnose [6] $end
$var wire 1 '# Div0|auto_generated|divider|divider|selnose [5] $end
$var wire 1 (# Div0|auto_generated|divider|divider|selnose [4] $end
$var wire 1 )# Div0|auto_generated|divider|divider|selnose [3] $end
$var wire 1 *# Div0|auto_generated|divider|divider|selnose [2] $end
$var wire 1 +# Div0|auto_generated|divider|divider|selnose [1] $end
$var wire 1 ,# Div0|auto_generated|divider|divider|selnose [0] $end
$var wire 1 -# Mult0|auto_generated|le5a [4] $end
$var wire 1 .# Mult0|auto_generated|le5a [3] $end
$var wire 1 /# Mult0|auto_generated|le5a [2] $end
$var wire 1 0# Mult0|auto_generated|le5a [1] $end
$var wire 1 1# Mult0|auto_generated|le5a [0] $end
$var wire 1 2# A~combout [3] $end
$var wire 1 3# A~combout [2] $end
$var wire 1 4# A~combout [1] $end
$var wire 1 5# A~combout [0] $end
$upscope $end
$upscope $end
$enddefinitions $end
#0
$dumpvars
b0 !
b0 "
b10001 #
0+
0*
0)
0(
0'
0&
0%
0$
02
11
00
0/
0.
0-
1,
09
18
07
06
05
04
13
x:
0;
1<
x=
1>
1?
1@
0A
0B
0C
0D
1E
0F
1G
0H
0I
0J
0K
0L
1M
0N
1O
0P
0Q
0R
0S
0T
0U
0V
0W
0X
0Y
0Z
0[
0\
0]
1^
0_
0`
0a
0b
1c
0d
1e
0f
0g
0h
0i
0j
0k
0l
0m
1n
1o
1p
1q
1r
0s
0t
0u
1v
0w
0x
0y
1z
0{
0|
0}
1~
0!!
0"!
0#!
0$!
0%!
1&!
0'!
0(!
1)!
0*!
0+!
0,!
0-!
0.!
0/!
00!
11!
12!
03!
04!
15!
06!
07!
18!
19!
0:!
0;!
1<!
0=!
1>!
0?!
1@!
1A!
0B!
0C!
0D!
0E!
1F!
0G!
0H!
0I!
0J!
1K!
0L!
1M!
0N!
0O!
1P!
1Q!
0R!
1S!
0T!
0U!
0V!
0W!
0X!
0Y!
0Z!
0[!
0\!
0]!
0^!
0_!
0`!
0a!
1b!
1c!
0d!
1e!
0f!
0g!
0h!
0i!
0j!
1k!
1l!
0m!
0n!
0o!
0p!
0q!
0r!
0s!
1t!
0u!
0v!
0w!
0x!
1y!
0z!
0{!
0|!
0}!
0~!
0!"
0""
0#"
1$"
1%"
1&"
0'"
0("
0)"
0*"
x+"
1,"
0-"
0."
1/"
00"
01"
02"
03"
04"
15"
06"
07"
08"
19"
0:"
1;"
0<"
1="
0>"
0?"
1@"
0A"
0B"
1C"
1D"
0E"
0F"
0G"
0H"
1I"
1J"
1K"
0L"
0M"
0N"
0O"
1P"
zU"
zT"
zS"
zR"
xQ"
0["
0Z"
0Y"
0X"
0W"
0V"
0a"
0`"
0_"
0^"
0]"
0\"
1f"
0e"
0d"
0c"
1b"
0j"
0i"
0h"
0g"
xr"
xq"
xp"
xo"
xn"
xm"
xl"
xk"
1v"
0u"
1t"
1s"
0,#
z+#
z*#
z)#
z(#
z'#
z&#
z%#
z$#
z##
0"#
z!#
z~"
z}"
z|"
z{"
zz"
zy"
zx"
zw"
01#
00#
0/#
0.#
z-#
05#
04#
03#
02#
$end
#50000
b1 "
1j"
0:
0A!
0Q!
1*!
0&!
1$!
1,#
0n
0e
0E
0K!
1B
1A
0r
1K
1R!
1.!
1F
1L!
1C
1i
0M
1L
1/!
0G
0M!
1D
1h
0F
1Q
1P
1H
1N!
1g
1G
1Z
1I
1"#
0i
0h
0g
0H
1F
0I
0G
1H
1I
#100000
b1 !
b11 "
b10 "
0j"
1i"
15#
1:
1Y"
1X"
1W"
1Q!
1&!
1["
1n
1E
1K!
0B
0S!
1a"
1V"
1]!
1T!
1I!
0@!
1{
1S
0R!
1J
0C
1H!
1?!
13!
1#!
0p
1U
17"
16"
1R!
18"
0S
1C
0T!
1V
1?"
1b
1_
1^!
1U!
0n
1#"
1B!
14!
1%!
0q
1:"
0V
1W
1Y
0U!
1T
1_!
1X!
0&!
0;"
0W
0X!
1Y!
1*
1<"
0Y
0Y!
1Z!
0="
0_
0Z!
1>"
0b
0?"
#150000
b11 "
1j"
0:
1Z"
0*!
1d!
0$!
0["
1s
1e
0K!
1B
1S!
0A
09"
0T
0.!
0e!
0J
08"
1S
0C
1T!
1V
0/!
1f!
19"
1T
1U!
0V
1X!
1Y!
1Z!
#200000
b11 !
b111 "
b10 !
b101 "
b100 "
0j"
0i"
1h"
05#
14#
1:
0Z"
0Y"
0X"
0W"
1+!
0d!
0s
0,#
1K!
0a"
0V"
1x!
0S
0K
0F
1C
1m!
1v!
0f!
0b!
0o
1N
0L
0D
0?!
0#!
1`"
1p
1t
1i
1d
0T
0U
07"
06"
1e!
1J
0L!
0C
0:"
1V
1?"
0>"
1b
1="
1_
0N
1L
1n!
1w!
1,#
1m
0^!
0%!
1q
1W
0V
1;"
0<"
1Y
0v!
1f!
1D
0?"
0b
0m
1o!
1g!
0_!
1&!
0Y
0_
0w!
0g!
1h!
1)
0*
0h!
1i!
1j!
0i!
0j!
#250000
b101 "
1j"
0:
1Z"
0Q!
1*!
0&!
1$!
0e
0E
0B
1A
1T
0R!
1.!
1/!
#300000
b11 !
b111 "
b110 "
0j"
1i"
15#
1:
0Z"
1X"
1W"
1Q!
1&!
1["
1E
1B
0S!
1a"
1V"
0]!
0x!
0T!
1]"
10#
11#
0{
1\"
1S
1K
1R!
0e!
0J
1F
1L!
1C
1i!
0H!
1?!
1#!
0p
0T
17"
16"
0K
0R!
18"
0S
0F
1x!
1T!
1V
1?"
1b
1_
1^!
1N
0U!
1`
1]
1Y
1^"
0`"
0c
1U
0L
1v!
0f!
0D
1j!
1%!
0q
1<"
0Y
1L
1U!
1T
0N
1_!
1m
0X!
1>"
0b
0="
0_
0^
0]
0?"
1:"
0V
1w!
0&!
0m
1X!
1g!
0Y!
1?"
1b
1a
0`
0;"
0W
1*
0g!
1Y!
1h!
0Z!
1c
0b
1Y
0h!
1Z!
0j!
0?"
1j!
#350000
b111 "
1j"
0:
1Y"
0+!
0*!
1d!
0$!
0["
1s
1e
0B
1S!
0A
14"
0U
0.!
1J
08"
1S
0x!
0T!
05"
07"
0:"
1V
0/!
0T
1N
0U!
1X
06"
1;"
1m
0X!
1]
0<"
1g!
0Y!
1h!
0Z!
0j!
#400000
b111 !
b1111 "
b101 !
b1011 "
b100 !
b1001 "
b1000 "
0j"
0i"
0h"
1g"
05#
04#
13#
1:
0Y"
0X"
0W"
1J!
0d!
0s
0V"
1@!
1/#
00#
01#
0S
1e!
0L!
0C
1,!
0y!
1M
1G
1D
1s!
1u
0i
1z!
0P
0O
0w!
0i!
0?!
0#!
1`"
1p
1_"
0t
1p!
1j!
0^"
04"
1U
15"
17"
1h
1C
0J
1?"
0>"
1b
1="
1_
1`
1^
0Y
0v!
1f!
1M!
0D
0z!
1P
0v
1|!
1\
0j!
0^!
0%!
1q
1W
0n!
1q!
07"
1:"
0V
0X
16"
0;"
0W
0?"
0`
1O
1w!
0N!
0|!
0t!
1}!
0_!
1&!
0o!
1r!
0]
1<"
0b
0\
0}!
1~!
1'"
0*
0)
0~!
1""
1!"
1("
0""
0!"
1(
#450000
b1001 "
1j"
0:
1Y"
0Q!
1*!
0&!
1$!
0e
0E
0K!
1B
1A
14"
0U
1K
1R!
1.!
1F
0C
17"
0:"
1V
0L
1/!
#500000
b10011 #
b10010 #
b101 !
b1011 "
b1010 "
0j"
1i"
15#
0f"
1e"
1:
1W"
1Q!
1&!
1["
1s
1E
1K!
0B
0S!
0a"
1V"
1]!
1T!
11#
1{
1S
0R!
1J
1L!
1C
1i!
1H!
1?!
0`"
1{!
0p!
1b!
0P!
0.!
1w
0u
1j
1`!
0)!
1X
06"
1R!
18"
0S
0L!
0C
0T!
0V
1?"
1b
0="
0_
1^!
1U!
1Y
1^"
0_"
1`"
1X!
0M!
1D
1j!
1;"
1W
1|!
1}!
xg!
0>!
0/!
1v
xk
0^
0<"
1T
1M!
0D
1>"
0b
1_!
xX!
0X
16"
0;"
0W
1Y!
1N!
x}!
1~!
xh!
1t!
1`
1="
1_
0N!
0?"
xY!
1^
1]
1<"
1Z!
x~!
1""
1!"
xj!
xi!
1*
xZ!
0`
0="
x""
x!"
#550000
b1011 "
1j"
0:
1Z"
0Y"
1X"
0*!
0&!
1d!
0$!
0["
0K!
1B
1S!
0A
09"
0T
04"
1U
05"
07"
0e!
0J
08"
1S
1L!
1C
1T!
1:"
15"
17"
1X
06"
1;"
1W
1v!
0f!
19"
1T
0M!
1D
0;"
0X
16"
0^
0]
0<"
0O
0w!
0:"
1V
1N!
1<"
1^
1]
1`
1="
1\
0W
0="
0`
1}
#600000
b111 !
b1111 "
b110 !
b1101 "
b1100 "
0j"
0i"
1h"
05#
14#
1:
0Z"
0X"
0W"
1+!
1&!
0d!
0s
1e
1K!
1a"
0V"
1x!
10#
01#
0S
0K
0F
0L!
0C
0m!
1f!
0b!
0,!
1y!
0N
0M
1L
0G
0D
0q!
0`"
0p
1!!
1i
0T
07"
06"
1,!
1e!
1J
1C
1:"
0V
1?"
0>"
1b
0_
0y!
1N
0^
0]
0Y
1M
0L
1G
1D
1z!
0P
0r!
1;"
1W
0q
1"!
0<"
0f!
0?"
0z!
1`
1="
1_
1P
0'"
16!
0_
0("
1:!
0(
1+
#650000
b1101 "
1j"
0:
1Z"
1Y"
0Q!
1*!
1$!
1s
0e
0E
0B
1A
1T
14"
0U
0R!
17"
0:"
1V
#700000
b111 !
b1111 "
b1110 "
0j"
1i"
15#
1:
0Z"
0Y"
1W"
1Q!
1["
1E
1B
0S!
0a"
1V"
0]!
0x!
0T!
0@!
0]"
11#
0{
0\"
1S
1K
1R!
0e!
0J
1F
0C
1!"
1q!
1i!
0H!
1p
0T
04"
16"
0K
0R!
18"
0S
0F
1x!
1T!
0V
1?"
1>"
0b
1_
1y!
0N
0`
1Y
0^"
0c
0M
1L
1f!
0G
1r!
1q
07"
1<"
0Y
1M
0L
1T
1G
0y!
1N
1z!
0>"
1b
1^
1]
0P
1'"
0W
0="
1P
0z!
0?"
0a
1`
1("
1>"
1c
1(
#750000
b1111 "
1j"
0:
1X"
0+!
0*!
0&!
1d!
0$!
0["
0B
1S!
0A
17"
0,!
1J
08"
1S
0x!
0T!
1W
0T
1y!
0N
1z!
#800000
b1111 !
b1011 !
b111 "
b1001 !
b11 "
b1000 !
b1 "
b0 "
0j"
0i"
0h"
0g"
05#
04#
03#
12#
1:
0X"
0W"
0J!
1A!
1&!
0d!
0s
1e
0V"
0I!
1@!
0/#
00#
01#
0S
1e!
1C
0v!
1b!
1o
1M!
0D
1-!
0i
1R
0Q
0H
0!"
0q!
0i!
0?!
0p
0!!
1t
07"
06"
0h
0C
0B!
0J
1f
1?"
0b
0_
1n
0`
0]
0<"
1Y
0f!
1O
1w!
0,#
0N!
1[
0Z
0I
0r!
0^!
0q
0"!
1n!
0W
0Y
1D
0>"
1b
1="
0\
0"#
0'"
0_!
06!
1o!
1g
0?"
0b
0}
0("
0:!
0*
1)
0(
0+
#850000
b1 "
1j"
0:
1X"
0A!
0Q!
1*!
1$!
1s
0n
0e
0E
0K!
1B
1A
17"
1B!
1K
1R!
0f
1F
1L!
1C
1i
1W
0M
1L
0M!
0G
1h
0F
0P
1N!
1G
1"#
0i
0h
0g
1F
0G
1H
1I
#900000
b1001 !
b11 "
b10 "
0j"
1i"
15#
1:
1Y"
1Q!
1["
1,#
1n
1E
1K!
0B
0S!
1a"
1V"
1]!
1T!
1{
1S
0R!
1J
0C
x!"
1q!
xi!
1H!
1p
1U
1R!
18"
0S
1C
0T!
1V
1?"
1b
1_
1^"
1r!
1q
1:"
0V
1T
1]
1'"
0;"
0W
0="
0_
1("
1Y
1>"
0b
1(
0?"
#950000
b11 "
1j"
0:
1Z"
0X"
1W"
0*!
0&!
1d!
0$!
0["
0n
1e
0K!
1B
1S!
0A
09"
0T
07"
16"
0e!
0J
08"
1S
1f
0C
1T!
1V
1;"
1W
1<"
0Y
1f!
19"
1T
1g
1M!
0D
0<"
1Y
1_
0V
0H
0N!
0_
0I
0"#
1i
0g
0F
1H
1G
1I
0H
0I
